R course – Modern data manipulation: dplyr and data.table
…
A tibble behaves like a standard data frame (e.g. is is still list-like)

Basic operations

Select rows and columns

We can use filter to select rows with defined conditions

We can use select to select columns

starwars %>% 
  filter(height > 170, mass < 130) %>%
  select(name, homeworld)

# A tibble: 37 × 2
   name              homeworld 
   <chr>             <chr>     
 1 Luke Skywalker    Tatooine  
 2 Owen Lars         Tatooine  
 3 Biggs Darklighter Tatooine  
 4 Obi-Wan Kenobi    Stewjon   
 5 Anakin Skywalker  Tatooine  
 6 Chewbacca         Kashyyyk  
 7 Han Solo          Corellia  
 8 Greedo            Rodia     
 9 Jek Tono Porkins  Bestine IV
10 Boba Fett         Kamino    
# ℹ 27 more rows

Note that we can call variables from the data set without $

Basic operations

Define new variables

We can use mutate to define new variables

starwars %>% 
  mutate(bmi = mass / (height/100)^2) 

# A tibble: 87 × 15
   name     height  mass hair_color skin_color eye_color birth_year sex   gender
   <chr>     <int> <dbl> <chr>      <chr>      <chr>          <dbl> <chr> <chr> 
 1 Luke Sk…    172    77 blond      fair       blue            19   male  mascu…
 2 C-3PO       167    75 <NA>       gold       yellow         112   none  mascu…
 3 R2-D2        96    32 <NA>       white, bl… red             33   none  mascu…
 4 Darth V…    202   136 none       white      yellow          41.9 male  mascu…
 5 Leia Or…    150    49 brown      light      brown           19   fema… femin…
 6 Owen La…    178   120 brown, gr… light      blue            52   male  mascu…
 7 Beru Wh…    165    75 brown      light      blue            47   fema… femin…
 8 R5-D4        97    32 <NA>       white, red red             NA   none  mascu…
 9 Biggs D…    183    84 black      light      brown           24   male  mascu…
10 Obi-Wan…    182    77 auburn, w… fair       blue-gray       57   male  mascu…
# ℹ 77 more rows
# ℹ 6 more variables: homeworld <chr>, species <chr>, films <list>,
#   vehicles <list>, starships <list>, bmi <dbl>
…
Use summarise to summarize variables

Sort results using arrange and possibly desc

Question: What is the mean height and weight for each species? Sort the result by weight in descending order.

starwars %>% 
  group_by(species) %>% 
  summarise(
    mean_height = mean(height, na.rm = TRUE),
    mean_weight = mean(mass, na.rm = TRUE),
  ) %>% 
  arrange(desc(mean_weight))

# A tibble: 38 × 3
   species      mean_height mean_weight
   <chr>              <dbl>       <dbl>
 1 Hutt                 175        1358
 2 Kaleesh              216         159
 3 Wookiee              231         124
 4 Trandoshan           190         113
 5 Besalisk             198         102
 6 Neimodian            191          90
 7 Kaminoan             221          88
 8 Nautolan             196          87
 9 Mon Calamari         180          83
10 Cerean               198          82
# ℹ 28 more rows
…
More complex example from before

starwars %>% 
  group_by(species) %>% 
  summarise(
    mean_height = mean(height, na.rm = TRUE),
    mean_weight = mean(mass, na.rm = TRUE),
  ) %>% 
  arrange(desc(mean_weight))

# A tibble: 38 × 3
   species      mean_height mean_weight
   <chr>              <dbl>       <dbl>
 1 Hutt                 175        1358
 2 Kaleesh              216         159
 3 Wookiee              231         124
 4 Trandoshan           190         113
 5 Besalisk             198         102
 6 Neimodian            191          90
 7 Kaminoan             221          88
 8 Nautolan             196          87
 9 Mon Calamari         180          83
10 Cerean               198          82
# ℹ 28 more rows
…
